{
    "Assets": [
        {
            "name": "Network",
            "associations": [
                [
                    "NetworkAccess",
                    "networks",
                    "hosts"
                ]
            ],
            "attack_steps": [
                "Network:access"
            ],
            "description": {},
            "super_assets": [],
            "sub_assets": []
        },
        {
            "name": "Host",
            "associations": [
                [
                    "NetworkAccess",
                    "networks",
                    "hosts"
                ],
                [
                    "Credentials",
                    "host",
                    "passwords"
                ]
            ],
            "attack_steps": [
                "Host:connect",
                "Host:authenticate",
                "Host:guessPassword",
                "Host:guessedPassword",
                "Host:access"
            ],
            "description": {},
            "super_assets": [],
            "sub_assets": [
                "Server",
                "WorkStation"
            ]
        },
        {
            "name": "Server",
            "associations": [
                [
                    "NetworkAccess",
                    "networks",
                    "hosts"
                ],
                [
                    "Credentials",
                    "host",
                    "passwords"
                ]
            ],
            "attack_steps": [
                "Server:connect",
                "Server:authenticate",
                "Server:guessPassword",
                "Server:guessedPassword",
                "Server:access"
            ],
            "description": {},
            "super_assets": [
                "Host"
            ],
            "sub_assets": []
        },
        {
            "name": "WorkStation",
            "associations": [
                [
                    "NetworkAccess",
                    "networks",
                    "hosts"
                ],
                [
                    "Credentials",
                    "host",
                    "passwords"
                ]
            ],
            "attack_steps": [
                "WorkStation:connect",
                "WorkStation:authenticate",
                "WorkStation:guessPassword",
                "WorkStation:guessedPassword",
                "WorkStation:access"
            ],
            "description": {},
            "super_assets": [
                "Host"
            ],
            "sub_assets": []
        },
        {
            "name": "User",
            "associations": [
                [
                    "Has",
                    "user",
                    "passwords"
                ]
            ],
            "attack_steps": [
                "User:attemptPhishing",
                "User:phish"
            ],
            "description": {},
            "super_assets": [],
            "sub_assets": []
        },
        {
            "name": "Password",
            "associations": [
                [
                    "Credentials",
                    "host",
                    "passwords"
                ],
                [
                    "Has",
                    "user",
                    "passwords"
                ]
            ],
            "attack_steps": [
                "Password:obtain"
            ],
            "description": {},
            "super_assets": [],
            "sub_assets": []
        }
    ],
    "Associations": [
        {
            "name": "NetworkAccess",
            "left": {
                "asset": "Network",
                "fieldname": "networks",
                "min": 0,
                "max": null
            },
            "right": {
                "asset": "Host",
                "fieldname": "hosts",
                "min": 0,
                "max": null
            },
            "description": {}
        },
        {
            "name": "Credentials",
            "left": {
                "asset": "Host",
                "fieldname": "host",
                "min": 1,
                "max": 1
            },
            "right": {
                "asset": "Password",
                "fieldname": "passwords",
                "min": 0,
                "max": null
            },
            "description": {}
        },
        {
            "name": "Has",
            "left": {
                "asset": "User",
                "fieldname": "user",
                "min": 1,
                "max": 1
            },
            "right": {
                "asset": "Password",
                "fieldname": "passwords",
                "min": 0,
                "max": null
            },
            "description": {}
        }
    ],
    "Attack Steps": [
        {
            "name": "Network:access",
            "type": "or",
            "asset": "Network",
            "ttc": null,
            "children": {
                "Host:connect": [
                    {
                        "NetworkAccess": {
                            "fieldname": "hosts",
                            "next_association": null
                        }
                    }
                ]
            },
            "parents": {
                "Password:obtain": [
                    {
                        "NetworkAccess": {
                            "fieldname": "hosts",
                            "next_association": {
                                "Credentials": {
                                    "fieldname": "passwords",
                                    "next_association": null
                                }
                            }
                        }
                    }
                ]
            },
            "description": {}
        },
        {
            "name": "Host:connect",
            "type": "or",
            "asset": "Host",
            "ttc": null,
            "children": {
                "Host:access": [
                    null
                ]
            },
            "parents": {
                "Network:access": [
                    {
                        "NetworkAccess": {
                            "fieldname": "networks",
                            "next_association": null
                        }
                    }
                ]
            },
            "description": {}
        },
        {
            "name": "Host:authenticate",
            "type": "or",
            "asset": "Host",
            "ttc": null,
            "children": {
                "Host:access": [
                    null
                ]
            },
            "parents": {
                "Host:guessedPassword": [
                    null
                ],
                "Password:obtain": [
                    {
                        "Credentials": {
                            "fieldname": "passwords",
                            "next_association": null
                        }
                    }
                ]
            },
            "description": {}
        },
        {
            "name": "Host:guessPassword",
            "type": "or",
            "asset": "Host",
            "ttc": null,
            "children": {
                "Host:guessedPassword": [
                    null
                ]
            },
            "parents": {},
            "description": {}
        },
        {
            "name": "Host:guessedPassword",
            "type": "or",
            "asset": "Host",
            "ttc": {
                "type": "function",
                "name": "Exponential",
                "arguments": [
                    0.02
                ]
            },
            "children": {
                "Host:authenticate": [
                    null
                ]
            },
            "parents": {
                "Host:guessPassword": [
                    null
                ]
            },
            "description": {}
        },
        {
            "name": "Host:access",
            "type": "and",
            "asset": "Host",
            "ttc": null,
            "children": {},
            "parents": {
                "Host:connect": [
                    null
                ],
                "Host:authenticate": [
                    null
                ]
            },
            "description": {}
        },
        {
            "name": "Server:connect",
            "type": "or",
            "asset": "Server",
            "ttc": null,
            "children": {
                "Server:access": [
                    null
                ]
            },
            "parents": {},
            "description": {}
        },
        {
            "name": "Server:authenticate",
            "type": "or",
            "asset": "Server",
            "ttc": null,
            "children": {
                "Server:access": [
                    null
                ]
            },
            "parents": {
                "Server:guessedPassword": [
                    null
                ]
            },
            "description": {}
        },
        {
            "name": "Server:guessPassword",
            "type": "or",
            "asset": "Server",
            "ttc": null,
            "children": {
                "Server:guessedPassword": [
                    null
                ]
            },
            "parents": {},
            "description": {}
        },
        {
            "name": "Server:guessedPassword",
            "type": "or",
            "asset": "Server",
            "ttc": {
                "type": "function",
                "name": "Exponential",
                "arguments": [
                    0.02
                ]
            },
            "children": {
                "Server:authenticate": [
                    null
                ]
            },
            "parents": {
                "Server:guessPassword": [
                    null
                ]
            },
            "description": {}
        },
        {
            "name": "Server:access",
            "type": "and",
            "asset": "Server",
            "ttc": null,
            "children": {},
            "parents": {
                "Server:connect": [
                    null
                ],
                "Server:authenticate": [
                    null
                ]
            },
            "description": {}
        },
        {
            "name": "WorkStation:connect",
            "type": "or",
            "asset": "WorkStation",
            "ttc": null,
            "children": {
                "WorkStation:access": [
                    null
                ]
            },
            "parents": {},
            "description": {}
        },
        {
            "name": "WorkStation:authenticate",
            "type": "or",
            "asset": "WorkStation",
            "ttc": null,
            "children": {
                "WorkStation:access": [
                    null
                ]
            },
            "parents": {
                "WorkStation:guessedPassword": [
                    null
                ]
            },
            "description": {}
        },
        {
            "name": "WorkStation:guessPassword",
            "type": "or",
            "asset": "WorkStation",
            "ttc": null,
            "children": {
                "WorkStation:guessedPassword": [
                    null
                ]
            },
            "parents": {},
            "description": {}
        },
        {
            "name": "WorkStation:guessedPassword",
            "type": "or",
            "asset": "WorkStation",
            "ttc": {
                "type": "function",
                "name": "Exponential",
                "arguments": [
                    0.02
                ]
            },
            "children": {
                "WorkStation:authenticate": [
                    null
                ]
            },
            "parents": {
                "WorkStation:guessPassword": [
                    null
                ]
            },
            "description": {}
        },
        {
            "name": "WorkStation:access",
            "type": "and",
            "asset": "WorkStation",
            "ttc": null,
            "children": {},
            "parents": {
                "WorkStation:connect": [
                    null
                ],
                "WorkStation:authenticate": [
                    null
                ]
            },
            "description": {}
        },
        {
            "name": "User:attemptPhishing",
            "type": "or",
            "asset": "User",
            "ttc": null,
            "children": {
                "User:phish": [
                    null
                ]
            },
            "parents": {},
            "description": {}
        },
        {
            "name": "User:phish",
            "type": "or",
            "asset": "User",
            "ttc": {
                "type": "function",
                "name": "Exponential",
                "arguments": [
                    0.1
                ]
            },
            "children": {
                "Password:obtain": [
                    {
                        "Has": {
                            "fieldname": "passwords",
                            "next_association": null
                        }
                    }
                ]
            },
            "parents": {
                "User:attemptPhishing": [
                    null
                ]
            },
            "description": {}
        },
        {
            "name": "Password:obtain",
            "type": "or",
            "asset": "Password",
            "ttc": null,
            "children": {
                "Host:authenticate": [
                    {
                        "Credentials": {
                            "fieldname": "host",
                            "next_association": null
                        }
                    }
                ],
                "Network:access": [
                    {
                        "Credentials": {
                            "fieldname": "host",
                            "next_association": {
                                "NetworkAccess": {
                                    "fieldname": "networks",
                                    "next_association": null
                                }
                            }
                        }
                    }
                ]
            },
            "parents": {
                "User:phish": [
                    {
                        "Has": {
                            "fieldname": "user",
                            "next_association": null
                        }
                    }
                ]
            },
            "description": {}
        }
    ]
}